{
  "name": "Login",
  "desc": "Login screen",
  "type": "SCREEN",
  "entities": [],
  "services": [],
  "childs": [],
  "childsMap": {},
  "dsgnrIdCntr": 379,
  "header": {
    "elmId": "header",
    "childs": [],
    "dsgnrId": "header",
    "elmType": "PORTION",
    "elmSubType": "HEADER"
  },
  "sidebar": {
    "elmId": "sidebar",
    "childs": [],
    "dsgnrId": "sidebar",
    "elmType": "PORTION",
    "elmSubType": "SIDEBAR"
  },
  "body": {
    "elmId": "body",
    "dsgnrId": "body",
    "childs": [
      {
        "custAttrs": [],
        "elmId": "panel",
        "elmType": "COMPLEX",
        "elmSubType": "PANEL",
        "dsgnrId": "wt_tab_031_000000354",
        "childs": [
          {
            "rows": [],
            "cols": [],
            "elmId": "grid",
            "elmType": "GRID",
            "elmSubType": "GRID",
            "dsgnrId": "wt_tab_031_000000355",
            "childs": [
              {
                "elmId": "cell",
                "elmType": "COMPLEX",
                "elmSubType": "CELL",
                "dsgnrId": "wt_tab_031_000000356",
                "childs": [
                  {
                    "elmId": "panel",
                    "elmType": "COMPLEX",
                    "elmSubType": "PANEL",
                    "dsgnrId": "wt_tab_031_000000357",
                    "childs": [
                      {
                        "elmId": "form",
                        "elmType": "COMPLEX",
                        "elmSubType": "FORM",
                        "dsgnrId": "wt_tab_031_000000358",
                        "childs": [
                          {
                            "rows": [],
                            "cols": [],
                            "elmId": "grid",
                            "elmType": "GRID",
                            "elmSubType": "GRID",
                            "dsgnrId": "wt_tab_017_000000377",
                            "childs": [
                              {
                                "elmId": "cell",
                                "elmType": "COMPLEX",
                                "elmSubType": "CELL",
                                "dsgnrId": "wt_tab_017_000000378",
                                "childs": [
                                  {
                                    "align": "left",
                                    "icon": "x3 x3-icon-LoginHeaderIcon",
                                    "elmId": "icon",
                                    "elmType": "SIMPLE",
                                    "elmSubType": "ICON",
                                    "dsgnrId": "wt_tab_017_000000379",
                                    "childs": [],
                                    "label": {
                                      "width": {
                                        "extrasmall": "5",
                                        "small": "5",
                                        "medium": "5",
                                        "large": "5",
                                        "extralarge": "5"
                                      }
                                    },
                                    "custAttrs": [],
                                    "events": [],
                                    "lovname": "",
                                    "images": "",
                                    "backgroundImages": "",
                                    "visible": "Y",
                                    "iconposition": "RIGHT",
                                    "variations": "primary",
                                    "paddingAllCustomType": "px",
                                    "paddingTopCustomType": "px",
                                    "paddingRightCustomType": "px",
                                    "paddingBottomCustomType": "px",
                                    "paddingLeftCustomType": "px",
                                    "marginAllCustomType": "px",
                                    "marginTopCustomType": "px",
                                    "marginRightCustomType": "px",
                                    "marginBottomCustomType": "px",
                                    "marginLeftCustomType": "px",
                                    "borderWidthType": "px",
                                    "borderTopWidthType": "px",
                                    "borderRightWidthType": "px",
                                    "borderBottomWidthType": "px",
                                    "borderLeftWidthType": "px",
                                    "borderRadiusAllType": "px",
                                    "borderRadiusTlType": "px",
                                    "borderRadiusTrType": "px",
                                    "borderRadiusBlType": "px",
                                    "borderRadiusBrType": "px",
                                    "fontSizeCustomType": "px",
                                    "widthType": "px",
                                    "minWidthType": "px",
                                    "maxWidthType": "px",
                                    "heightType": "px",
                                    "minHeightType": "px",
                                    "maxHeightType": "px",
                                    "dispinchild": "N",
                                    "filter": "N",
                                    "paddingLeftValue": "4"
                                  }
                                ],
                                "xStart": "",
                                "xEnd": "",
                                "yStart": "",
                                "yEnd": "",
                                "cssRules": [],
                                "lovname": "",
                                "images": "",
                                "classes": "mb-3",
                                "visible": "Y",
                                "justifyself": "CENTER",
                                "heightCustomType": "px",
                                "minHeightType": "px",
                                "maxHeightType": "px",
                                "phoneportrait": "xle-ti-col12",
                                "phonelandscape": "xle-sm-col12",
                                "tablet": "xle-md-col12",
                                "desktop": "xle-lg-col12",
                                "widescreen": "xle-xl-col12"
                              }
                            ],
                            "custCols": [],
                            "cssRules": [],
                            "lovname": "",
                            "images": "",
                            "backgroundImages": "",
                            "visible": "Y",
                            "gridtype": "RESPONSIVE",
                            "fixedcolwidth": "grid-box1",
                            "responsivecolcount": "1",
                            "rowgapType": "px",
                            "columngapType": "px"
                          },
                          {
                            "rows": [],
                            "cols": [],
                            "elmId": "grid",
                            "elmType": "GRID",
                            "elmSubType": "GRID",
                            "dsgnrId": "wt_tab_031_000000362",
                            "childs": [
                              {
                                "elmId": "cell",
                                "elmType": "COMPLEX",
                                "elmSubType": "CELL",
                                "dsgnrId": "wt_tab_031_000000363",
                                "childs": [
                                  {
                                    "align": "left",
                                    "type": "h5",
                                    "value": "Welcome",
                                    "format": "Normal",
                                    "elmId": "text",
                                    "elmType": "SIMPLE",
                                    "elmSubType": "TEXT",
                                    "dsgnrId": "wt_tab_031_000000364",
                                    "childs": [],
                                    "label": {
                                      "width": {
                                        "extrasmall": "5",
                                        "small": "5",
                                        "medium": "5",
                                        "large": "5",
                                        "extralarge": "5"
                                      }
                                    },
                                    "custAttrs": [],
                                    "events": [],
                                    "bindingType": "oneWay",
                                    "paddingAllCustomType": "px",
                                    "paddingTopCustomType": "px",
                                    "paddingRightCustomType": "px",
                                    "paddingBottomCustomType": "px",
                                    "paddingLeftCustomType": "px",
                                    "marginAllCustomType": "px",
                                    "marginTopCustomType": "px",
                                    "marginRightCustomType": "px",
                                    "marginBottomCustomType": "px",
                                    "marginLeftCustomType": "px",
                                    "borderWidthType": "px",
                                    "borderTopWidthType": "px",
                                    "borderRightWidthType": "px",
                                    "borderBottomWidthType": "px",
                                    "borderLeftWidthType": "px",
                                    "borderRadiusAllType": "px",
                                    "borderRadiusTlType": "px",
                                    "borderRadiusTrType": "px",
                                    "borderRadiusBlType": "px",
                                    "borderRadiusBrType": "px",
                                    "fontSizeCustomType": "px",
                                    "widthType": "px",
                                    "minWidthType": "px",
                                    "maxWidthType": "px",
                                    "heightType": "px",
                                    "minHeightType": "px",
                                    "maxHeightType": "px",
                                    "dispinchild": "N",
                                    "filter": "N",
                                    "visible": "Y"
                                  }
                                ],
                                "xStart": "",
                                "xEnd": "",
                                "yStart": "",
                                "yEnd": "",
                                "cssRules": [],
                                "heightType": "px",
                                "minHeightType": "px",
                                "maxHeightType": "px",
                                "phoneportrait": "xle-ti-col12",
                                "phonelandscape": "xle-sm-col12",
                                "tablet": "xle-md-col12",
                                "desktop": "xle-lg-col12",
                                "widescreen": "xle-xl-col12",
                                "justifyself": "CENTER",
                                "alignself": "CENTER"
                              },
                              {
                                "elmId": "cell",
                                "elmType": "COMPLEX",
                                "elmSubType": "CELL",
                                "dsgnrId": "wt_tab_031_000000365",
                                "childs": [
                                  {
                                    "elmId": "input",
                                    "elmType": "SIMPLE",
                                    "elmSubType": "INPUT",
                                    "dsgnrId": "wt_tab_031_000000366",
                                    "childs": [],
                                    "label": {
                                      "width": {
                                        "extrasmall": "5",
                                        "small": "5",
                                        "medium": "5",
                                        "large": "5",
                                        "extralarge": "5"
                                      }
                                    },
                                    "events": [],
                                    "required": "N",
                                    "editable": "Y",
                                    "readonly": "N",
                                    "inputtype": "TEXT",
                                    "decimalseparator": "DOT",
                                    "appdateformat": "N",
                                    "rangepicker": "N",
                                    "bindingType": "oneWay",
                                    "triggernon": "hover",
                                    "position": "top",
                                    "iconposition": "RIGHT",
                                    "iconsize": "NORMAL",
                                    "paddingAllCustomType": "px",
                                    "paddingTopCustomType": "px",
                                    "paddingRightCustomType": "px",
                                    "paddingBottomCustomType": "px",
                                    "paddingLeftCustomType": "px",
                                    "marginAllCustomType": "px",
                                    "marginTopCustomType": "px",
                                    "marginRightCustomType": "px",
                                    "marginBottomCustomType": "px",
                                    "marginLeftCustomType": "px",
                                    "borderWidthType": "px",
                                    "borderTopWidthType": "px",
                                    "borderRightWidthType": "px",
                                    "borderBottomWidthType": "px",
                                    "borderLeftWidthType": "px",
                                    "borderRadiusAllType": "px",
                                    "borderRadiusTlType": "px",
                                    "borderRadiusTrType": "px",
                                    "borderRadiusBlType": "px",
                                    "borderRadiusBrType": "px",
                                    "fontSizeCustomType": "px",
                                    "widthType": "px",
                                    "minWidthType": "px",
                                    "maxWidthType": "px",
                                    "heightType": "px",
                                    "minHeightType": "px",
                                    "maxHeightType": "px",
                                    "dispinchild": "N",
                                    "filter": "N",
                                    "maxWidth": "250",
                                    "id": "corporateId",
                                    "placeholder": "Corporate Id",
                                    "marginBottomValue": "0",
                                    "visible": "N",
                                    "size": "sm",
                                    "returnVars": [],
                                    "bindVars": [],
                                    "custAttrs": [],
                                    "lovname": "",
                                    "images": "",
                                    "backgroundImages": "",
                                    "disabled": "N"
                                  }
                                ],
                                "xStart": "",
                                "xEnd": "",
                                "yStart": "",
                                "yEnd": "",
                                "cssRules": [],
                                "heightType": "px",
                                "minHeightType": "px",
                                "maxHeightType": "px",
                                "phoneportrait": "xle-ti-col12",
                                "phonelandscape": "xle-sm-col12",
                                "tablet": "xle-md-col12",
                                "desktop": "xle-lg-col12",
                                "widescreen": "xle-xl-col12",
                                "justifyself": "CENTER",
                                "visible": "Y"
                              },
                              {
                                "elmId": "cell",
                                "elmType": "COMPLEX",
                                "elmSubType": "CELL",
                                "dsgnrId": "wt_tab_031_000000367",
                                "childs": [
                                  {
                                    "elmId": "input",
                                    "elmType": "SIMPLE",
                                    "elmSubType": "INPUT",
                                    "dsgnrId": "wt_tab_031_000000368",
                                    "childs": [],
                                    "label": {
                                      "width": {
                                        "extrasmall": "5",
                                        "small": "5",
                                        "medium": "5",
                                        "large": "5",
                                        "extralarge": "5"
                                      }
                                    },
                                    "custAttrs": [],
                                    "events": [],
                                    "placeholder": "Customer Id",
                                    "required": "N",
                                    "editable": "Y",
                                    "readonly": "N",
                                    "inputtype": "TEXT",
                                    "decimalseparator": "DOT",
                                    "appdateformat": "N",
                                    "rangepicker": "N",
                                    "bindingType": "oneWay",
                                    "triggernon": "hover",
                                    "position": "top",
                                    "iconposition": "RIGHT",
                                    "iconsize": "NORMAL",
                                    "paddingAllCustomType": "px",
                                    "paddingTopCustomType": "px",
                                    "paddingRightCustomType": "px",
                                    "paddingBottomCustomType": "px",
                                    "paddingLeftCustomType": "px",
                                    "marginAllCustomType": "px",
                                    "marginTopCustomType": "px",
                                    "marginRightCustomType": "px",
                                    "marginBottomCustomType": "px",
                                    "marginLeftCustomType": "px",
                                    "borderWidthType": "px",
                                    "borderTopWidthType": "px",
                                    "borderRightWidthType": "px",
                                    "borderBottomWidthType": "px",
                                    "borderLeftWidthType": "px",
                                    "borderRadiusAllType": "px",
                                    "borderRadiusTlType": "px",
                                    "borderRadiusTrType": "px",
                                    "borderRadiusBlType": "px",
                                    "borderRadiusBrType": "px",
                                    "fontSizeCustomType": "px",
                                    "widthType": "px",
                                    "minWidthType": "px",
                                    "maxWidthType": "px",
                                    "heightType": "px",
                                    "minHeightType": "px",
                                    "maxHeightType": "px",
                                    "dispinchild": "N",
                                    "filter": "N",
                                    "id": "customerId",
                                    "marginBottomValue": "0",
                                    "maxWidth": "250"
                                  }
                                ],
                                "xStart": "",
                                "xEnd": "",
                                "yStart": "",
                                "yEnd": "",
                                "cssRules": [],
                                "heightType": "px",
                                "minHeightType": "px",
                                "maxHeightType": "px",
                                "phoneportrait": "xle-ti-col12",
                                "phonelandscape": "xle-sm-col12",
                                "tablet": "xle-md-col12",
                                "desktop": "xle-lg-col12",
                                "widescreen": "xle-xl-col12",
                                "justifyself": "CENTER"
                              },
                              {
                                "elmId": "cell",
                                "elmType": "COMPLEX",
                                "elmSubType": "CELL",
                                "dsgnrId": "wt_tab_031_000000369",
                                "childs": [
                                  {
                                    "elmId": "input",
                                    "elmType": "SIMPLE",
                                    "elmSubType": "INPUT",
                                    "dsgnrId": "wt_tab_031_000000370",
                                    "childs": [],
                                    "label": {
                                      "width": {
                                        "extrasmall": "5",
                                        "small": "5",
                                        "medium": "5",
                                        "large": "5",
                                        "extralarge": "5"
                                      }
                                    },
                                    "custAttrs": [],
                                    "events": [],
                                    "required": "N",
                                    "editable": "Y",
                                    "readonly": "N",
                                    "inputtype": "PASSWORD",
                                    "decimalseparator": "DOT",
                                    "appdateformat": "N",
                                    "rangepicker": "N",
                                    "bindingType": "oneWay",
                                    "triggernon": "hover",
                                    "position": "top",
                                    "iconposition": "RIGHT",
                                    "iconsize": "NORMAL",
                                    "paddingAllCustomType": "px",
                                    "paddingTopCustomType": "px",
                                    "paddingRightCustomType": "px",
                                    "paddingBottomCustomType": "px",
                                    "paddingLeftCustomType": "px",
                                    "marginAllCustomType": "px",
                                    "marginTopCustomType": "px",
                                    "marginRightCustomType": "px",
                                    "marginBottomCustomType": "px",
                                    "marginLeftCustomType": "px",
                                    "borderWidthType": "px",
                                    "borderTopWidthType": "px",
                                    "borderRightWidthType": "px",
                                    "borderBottomWidthType": "px",
                                    "borderLeftWidthType": "px",
                                    "borderRadiusAllType": "px",
                                    "borderRadiusTlType": "px",
                                    "borderRadiusTrType": "px",
                                    "borderRadiusBlType": "px",
                                    "borderRadiusBrType": "px",
                                    "fontSizeCustomType": "px",
                                    "widthType": "px",
                                    "minWidthType": "px",
                                    "maxWidthType": "px",
                                    "heightType": "px",
                                    "minHeightType": "px",
                                    "maxHeightType": "px",
                                    "dispinchild": "N",
                                    "filter": "N",
                                    "placeholder": "Password",
                                    "id": "password",
                                    "marginBottomValue": "0",
                                    "maxWidth": "250"
                                  }
                                ],
                                "xStart": "",
                                "xEnd": "",
                                "yStart": "",
                                "yEnd": "",
                                "cssRules": [],
                                "heightType": "px",
                                "minHeightType": "px",
                                "maxHeightType": "px",
                                "phoneportrait": "xle-ti-col12",
                                "phonelandscape": "xle-sm-col12",
                                "tablet": "xle-md-col12",
                                "desktop": "xle-lg-col12",
                                "widescreen": "xle-xl-col12",
                                "justifyself": "CENTER"
                              },
                              {
                                "elmId": "cell",
                                "elmType": "COMPLEX",
                                "elmSubType": "CELL",
                                "dsgnrId": "wt_tab_031_000000371",
                                "childs": [
                                  {
                                    "align": "left",
                                    "elmId": "button",
                                    "elmType": "SIMPLE",
                                    "elmSubType": "BUTTON",
                                    "dsgnrId": "wt_tab_031_000000372",
                                    "childs": [],
                                    "label": {
                                      "width": {
                                        "extrasmall": "5",
                                        "small": "5",
                                        "medium": "5",
                                        "large": "5",
                                        "extralarge": "5"
                                      }
                                    },
                                    "custAttrs": [],
                                    "events": [
                                      {
                                        "eventname": "onclick",
                                        "eventfunction": "login"
                                      }
                                    ],
                                    "title": "Login",
                                    "editable": "N",
                                    "iconposition": "RIGHT",
                                    "variations": "INFO",
                                    "shadow": "N",
                                    "block": "N",
                                    "paddingAllCustomType": "px",
                                    "paddingTopCustomType": "px",
                                    "paddingRightCustomType": "px",
                                    "paddingBottomCustomType": "px",
                                    "paddingLeftCustomType": "px",
                                    "marginAllCustomType": "px",
                                    "marginTopCustomType": "px",
                                    "marginRightCustomType": "px",
                                    "marginBottomCustomType": "px",
                                    "marginLeftCustomType": "px",
                                    "borderWidthType": "px",
                                    "borderTopWidthType": "px",
                                    "borderRightWidthType": "px",
                                    "borderBottomWidthType": "px",
                                    "borderLeftWidthType": "px",
                                    "borderRadiusAllType": "px",
                                    "borderRadiusTlType": "px",
                                    "borderRadiusTrType": "px",
                                    "borderRadiusBlType": "px",
                                    "borderRadiusBrType": "px",
                                    "fontSizeCustomType": "px",
                                    "widthType": "px",
                                    "minWidthType": "px",
                                    "maxWidthType": "px",
                                    "heightType": "px",
                                    "minHeightType": "px",
                                    "maxHeightType": "px",
                                    "dispinchild": "N",
                                    "filter": "N",
                                    "style": "round",
                                    "classes": "btn-block",
                                    "width": "230"
                                  }
                                ],
                                "xStart": "",
                                "xEnd": "",
                                "yStart": "",
                                "yEnd": "",
                                "cssRules": [],
                                "heightType": "px",
                                "minHeightType": "px",
                                "maxHeightType": "px",
                                "phoneportrait": "xle-ti-col12",
                                "phonelandscape": "xle-sm-col12",
                                "tablet": "xle-md-col12",
                                "desktop": "xle-lg-col12",
                                "widescreen": "xle-xl-col12",
                                "justifyself": "CENTER"
                              }
                            ],
                            "custCols": [],
                            "cssRules": [],
                            "gridtype": "RESPONSIVE",
                            "fixedcolwidth": "grid-box1",
                            "responsivecolcount": "5",
                            "rowgapType": "px",
                            "columngapType": "px",
                            "lovname": "",
                            "images": "",
                            "backgroundImages": "",
                            "visible": "Y"
                          }
                        ],
                        "events": [],
                        "fieldset": "N",
                        "layout": "VERTICAL",
                        "bindingType": "oneWay",
                        "paddingAllCustomType": "px",
                        "paddingTopCustomType": "px",
                        "paddingRightCustomType": "px",
                        "paddingBottomCustomType": "px",
                        "paddingLeftCustomType": "px",
                        "marginAllCustomType": "px",
                        "marginTopCustomType": "px",
                        "marginRightCustomType": "px",
                        "marginBottomCustomType": "px",
                        "marginLeftCustomType": "px",
                        "borderWidthType": "px",
                        "borderTopWidthType": "px",
                        "borderRightWidthType": "px",
                        "borderBottomWidthType": "px",
                        "borderLeftWidthType": "px",
                        "borderRadiusAllType": "px",
                        "borderRadiusTlType": "px",
                        "borderRadiusTrType": "px",
                        "borderRadiusBlType": "px",
                        "borderRadiusBrType": "px",
                        "fontSizeCustomType": "px",
                        "widthType": "px",
                        "minWidthType": "px",
                        "maxWidthType": "px",
                        "heightType": "px",
                        "minHeightType": "px",
                        "maxHeightType": "px",
                        "boxed": "N",
                        "custAttrs": [],
                        "maxWidth": "500",
                        "id": "login_form",
                        "lovname": "",
                        "images": "",
                        "backgroundImages": "",
                        "visible": "Y",
                        "paddingTopValue": "5"
                      }
                    ],
                    "variations": "TRANSPARENT",
                    "paddingAllCustomType": "px",
                    "paddingTopCustomType": "px",
                    "paddingRightCustomType": "px",
                    "paddingBottomCustomType": "px",
                    "paddingLeftCustomType": "px",
                    "marginAllCustomType": "px",
                    "marginTopCustomType": "px",
                    "marginRightCustomType": "px",
                    "marginBottomCustomType": "px",
                    "marginLeftCustomType": "px",
                    "borderWidthType": "px",
                    "borderTopWidthType": "px",
                    "borderRightWidthType": "px",
                    "borderBottomWidthType": "px",
                    "borderLeftWidthType": "px",
                    "borderRadiusAllType": "px",
                    "borderRadiusTlType": "px",
                    "borderRadiusTrType": "px",
                    "borderRadiusBlType": "px",
                    "borderRadiusBrType": "px",
                    "fontSizeCustomType": "px",
                    "widthType": "px",
                    "minWidthType": "px",
                    "maxWidthType": "px",
                    "heightType": "px",
                    "minHeightType": "px",
                    "maxHeightType": "px",
                    "boxed": "N",
                    "custAttrs": [],
                    "paddingTopValue": "5",
                    "lovname": "",
                    "images": "",
                    "backgroundImages": "",
                    "visible": "Y",
                    "popover": "N",
                    "trigger": "CLICK"
                  }
                ],
                "xStart": "",
                "xEnd": "",
                "yStart": "",
                "yEnd": "",
                "cssRules": [],
                "heightType": "px",
                "minHeightType": "px",
                "maxHeightType": "px",
                "phoneportrait": "xle-ti-col12",
                "phonelandscape": "xle-sm-col12",
                "tablet": "xle-md-col6",
                "desktop": "xle-lg-col6",
                "widescreen": "xle-xl-col6",
                "lovname": "",
                "images": "",
                "backgroundImages": "",
                "visible": "Y",
                "heightCustomType": "px"
              }
            ],
            "custCols": [],
            "cssRules": [],
            "gridtype": "RESPONSIVE",
            "fixedcolwidth": "grid-box1",
            "responsivecolcount": "1",
            "rowgapType": "px",
            "columngapType": "px"
          }
        ],
        "variations": "TRANSPARENT",
        "paddingAllCustomType": "px",
        "paddingTopCustomType": "px",
        "paddingRightCustomType": "px",
        "paddingBottomCustomType": "px",
        "paddingLeftCustomType": "px",
        "marginAllCustomType": "px",
        "marginTopCustomType": "px",
        "marginRightCustomType": "px",
        "marginBottomCustomType": "px",
        "marginLeftCustomType": "px",
        "borderWidthType": "px",
        "borderTopWidthType": "px",
        "borderRightWidthType": "px",
        "borderBottomWidthType": "px",
        "borderLeftWidthType": "px",
        "borderRadiusAllType": "px",
        "borderRadiusTlType": "px",
        "borderRadiusTrType": "px",
        "borderRadiusBlType": "px",
        "borderRadiusBrType": "px",
        "fontSizeCustomType": "px",
        "widthType": "px",
        "minWidthType": "px",
        "maxWidthType": "px",
        "heightType": "other",
        "minHeightType": "px",
        "maxHeightType": "px",
        "backgroundImage": "url(assets/img/login-banner.jpg)",
        "backgroundSize": "cover",
        "lovname": "",
        "images": "",
        "backgroundImages": "LoginBanner",
        "visible": "Y",
        "popover": "N",
        "trigger": "CLICK",
        "customHeight": "100vh"
      }
    ],
    "elmType": "PORTION",
    "elmSubType": "BODY",
    "custAttrs": [],
    "boxed": "N",
    "paddingAllCustomType": "px",
    "paddingTopCustomType": "px",
    "paddingRightCustomType": "px",
    "paddingBottomCustomType": "px",
    "paddingLeftCustomType": "px",
    "marginAllCustomType": "px",
    "marginTopCustomType": "px",
    "marginRightCustomType": "px",
    "marginBottomCustomType": "px",
    "marginLeftCustomType": "px",
    "borderWidthType": "px",
    "borderTopWidthType": "px",
    "borderRightWidthType": "px",
    "borderBottomWidthType": "px",
    "borderLeftWidthType": "px",
    "borderRadiusAllType": "px",
    "borderRadiusTlType": "px",
    "borderRadiusTrType": "px",
    "borderRadiusBlType": "px",
    "borderRadiusBrType": "px",
    "fontSizeCustomType": "px",
    "lovname": "",
    "images": "",
    "backgroundImages": ""
  },
  "footer": {
    "elmId": "footer",
    "childs": [],
    "dsgnrId": "footer",
    "elmType": "PORTION",
    "elmSubType": "FOOTER"
  },
  "description": "",
  "nodename": "login"
}